20250624_MakeConfigFile – 20250624_PanExperiment_NMD_CandidateJuncs
…
SRA_run_selector_metadata %>%
    mutate(cell_type = case_when(
        StudyFirstAuthor %in% c("Darman", "Karousis") ~ cell_line,
        StudyFirstAuthor %in% c("Colombo", "Ritter") ~ cell_type,
    ))

# A tibble: 62 × 66
   Run        `Assay Type` AvgSpotLen      Bases BioProject  BioSample     Bytes
   <chr>      <chr>             <dbl>      <dbl> <chr>       <chr>         <dbl>
 1 SRR4081222 RNA-Seq             101 5804012369 PRJNA340370 SAMN05713247 4.16e9
 2 SRR4081223 RNA-Seq             101 5500806228 PRJNA340370 SAMN05713246 3.94e9
 3 SRR4081224 RNA-Seq             101 5995930650 PRJNA340370 SAMN05713245 4.29e9
 4 SRR4081225 RNA-Seq             101 5789381509 PRJNA340370 SAMN05713244 4.15e9
 5 SRR4081226 RNA-Seq             101 4573453316 PRJNA340370 SAMN05713243 3.29e9
 6 SRR4081227 RNA-Seq             101 6267092117 PRJNA340370 SAMN05713242 4.50e9
 7 SRR4081237 RNA-Seq             100 7158484636 PRJNA340370 SAMN05713060 3.34e9
 8 SRR4081238 RNA-Seq             100 8733816982 PRJNA340370 SAMN05713059 3.55e9
 9 SRR4081239 RNA-Seq             100 7701277998 PRJNA340370 SAMN05713058 3.42e9
10 SRR4081246 RNA-Seq             100 7362571070 PRJNA340370 SAMN05713051 2.96e9
# ℹ 52 more rows
# ℹ 59 more variables: `Center Name` <chr>, Consent <chr>,
#   `DATASTORE filetype` <chr>, `DATASTORE provider` <chr>,
#   `DATASTORE region` <chr>, Experiment <chr>, `GEO_Accession (exp)` <chr>,
#   Instrument <chr>, LibraryLayout <chr>, LibrarySelection <chr>,
#   LibrarySource <chr>, Organism <chr>, Platform <chr>, ReleaseDate <dttm>,
#   create_date <dttm>, version <dbl>, `Sample Name` <chr>, …
…
